AC312-4ZE5K-M808P-FMYQZ-PCHE0
ZZ1J8-08E8M-0894P-RGXXT-WZRF4
ZV79H-8XF03-088NQ-H7MN9-WART2
YV39H-27X85-484RZ-EQQ5T-WLRV4
YA10H-83EDN-480XY-WGW5G-QFKU0
UA3DA-8CF87-48EJQ-NNM7X-Q7KA0
GZ54H-A1D16-H89LY-CXW7Z-YCKV2
AZ380-F1Z46-M8ERY-8QZXV-ZQA9A
CU580-0LW1Q-48DXP-ZQP7G-PUKY2
CV78K-2MY80-M85ZY-37ZZ9-NYHE4
UU18K-69E17-4818Q-0EYNT-ZF8UA
CY7TH-2ZY0K-H842Q-XEMXV-ZVK98
YZ7WU-0ZZDP-089XY-5XZEE-YQ2F8
GF15U-84W4J-M8ETP-Q7XZV-ML8F6
GA148-8AG83-M8DJY-EGQNV-ZYUV6